^D:\DEVELOP\ВЖХ\PUMPTOOL\PUMPTOOL\STDAFX.CPP
D:\DEVELOP\ВЖХ\PUMPTOOL\PUMPTOOL\RELEASE\PUMPTOOL.PCH
D:\DEVELOP\ВЖХ\PUMPTOOL\PUMPTOOL\RELEASE\VC142.PDB
D:\DEVELOP\ВЖХ\PUMPTOOL\PUMPTOOL\RELEASE\STDAFX.OBJ
^D:\DEVELOP\ВЖХ\PUMPTOOL\PUMPTOOL\AUTOSAMPLERPAGE.CPP|D:\DEVELOP\ВЖХ\PUMPTOOL\PUMPTOOL\COMMONPROGRAMDIALOG.CPP|D:\DEVELOP\ВЖХ\PUMPTOOL\PUMPTOOL\CONNECTIONPAGE.CPP|D:\DEVELOP\ВЖХ\PUMPTOOL\PUMPTOOL\CONTROLS\EDITABLEGRIDCTRL.CPP|D:\DEVELOP\ВЖХ\PUMPTOOL\PUMPTOOL\CONTROLS\FILTEREDIT.CPP|D:\DEVELOP\ВЖХ\PUMPTOOL\PUMPTOOL\CONTROLS\FLOATVALIDATOR.CPP|D:\DEVELOP\ВЖХ\PUMPTOOL\PUMPTOOL\CONTROLS\GRIDCOMBOBOX.CPP|D:\DEVELOP\ВЖХ\PUMPTOOL\PUMPTOOL\CONTROLS\GRIDCOMBOBOXCHILDEDIT.CPP|D:\DEVELOP\ВЖХ\PUMPTOOL\PUMPTOOL\CONTROLS\GRIDCTRL.CPP|D:\DEVELOP\ВЖХ\PUMPTOOL\PUMPTOOL\CONTROLS\GRIDEDIT.CPP|D:\DEVELOP\ВЖХ\PUMPTOOL\PUMPTOOL\CONTROLS\HEADERCTRLEXT.CPP|D:\DEVELOP\ВЖХ\PUMPTOOL\PUMPTOOL\CONTROLS\IMAGECOMBOBOX.CPP|D:\DEVELOP\ВЖХ\PUMPTOOL\PUMPTOOL\CONTROLS\INTEGERVALIDATOR.CPP|D:\DEVELOP\ВЖХ\PUMPTOOL\PUMPTOOL\CONTROLS\SMARTCOMBOBOX.CPP|D:\DEVELOP\ВЖХ\PUMPTOOL\PUMPTOOL\CONTROLS\TRACKINGTOOLTIP.CPP|D:\DEVELOP\ВЖХ\PUMPTOOL\PUMPTOOL\DIALOGS\INSTRUMENTERRORDIALOG.CPP|D:\DEVELOP\ВЖХ\PUMPTOOL\PUMPTOOL\ERRORDIALOG.CPP|D:\DEVELOP\ВЖХ\PUMPTOOL\PUMPTOOL\GRADIENTPAGE.CPP|D:\DEVELOP\ВЖХ\PUMPTOOL\PUMPTOOL\GRADIENTPROGRAMDIALOG.CPP|D:\DEVELOP\ВЖХ\PUMPTOOL\PUMPTOOL\GRADIENTPROGRAMSTAGE.CPP|D:\DEVELOP\ВЖХ\PUMPTOOL\PUMPTOOL\GRADIENTWAITDIALOG.CPP|D:\DEVELOP\ВЖХ\PUMPTOOL\PUMPTOOL\INSTRUMENTBASE\INCOMINGMESSAGE.CPP|D:\DEVELOP\ВЖХ\PUMPTOOL\PUMPTOOL\INSTRUMENTBASE\INSTRUMENT.CPP|D:\DEVELOP\ВЖХ\PUMPTOOL\PUMPTOOL\INSTRUMENTBASE\MASTERINSTRUMENT.CPP|D:\DEVELOP\ВЖХ\PUMPTOOL\PUMPTOOL\INSTRUMENTBASE\MEASUREDDATA.CPP|D:\DEVELOP\ВЖХ\PUMPTOOL\PUMPTOOL\INSTRUMENTBASE\MEASUREMENTPROGRAM.CPP|D:\DEVELOP\ВЖХ\PUMPTOOL\PUMPTOOL\INSTRUMENTBASE\OUTGOINGMESSAGE.CPP|D:\DEVELOP\ВЖХ\PUMPTOOL\PUMPTOOL\INSTRUMENT\AUTOSAMPLER.CPP|D:\DEVELOP\ВЖХ\PUMPTOOL\PUMPTOOL\INSTRUMENT\PITON.CPP|D:\DEVELOP\ВЖХ\PUMPTOOL\PUMPTOOL\INSTRUMENT\THERMOSTAT.CPP|D:\DEVELOP\ВЖХ\PUMPTOOL\PUMPTOOL\ISOCRATICPAGE.CPP|D:\DEVELOP\ВЖХ\PUMPTOOL\PUMPTOOL\ISOCRATICSETTINGSDIALOG.CPP|D:\DEVELOP\ВЖХ\PUMPTOOL\PUMPTOOL\MAINPROPERTYSHEET.CPP|D:\DEVELOP\ВЖХ\PUMPTOOL\PUMPTOOL\PROGRAMDATA.CPP|D:\DEVELOP\ВЖХ\PUMPTOOL\PUMPTOOL\PUMPTOOL.CPP|D:\DEVELOP\ВЖХ\PUMPTOOL\PUMPTOOL\SELECTPUMPCONNECTIONDIALOG.CPP|D:\DEVELOP\ВЖХ\PUMPTOOL\PUMPTOOL\SERVICE.CPP|D:\DEVELOP\ВЖХ\PUMPTOOL\PUMPTOOL\SETTINGSPAGE.CPP|D:\DEVELOP\ВЖХ\PUMPTOOL\PUMPTOOL\THERMOSTATPAGE.CPP|D:\DEVELOP\ВЖХ\PUMPTOOL\PUMPTOOL\TOOLPAGE.CPP|D:\DEVELOP\ВЖХ\PUMPTOOL\PUMPTOOL\USER\CLIPBOARD.CPP|D:\DEVELOP\ВЖХ\PUMPTOOL\PUMPTOOL\USER\UNIVERSALDATAFILE.CPP
D:\DEVELOP\ВЖХ\PUMPTOOL\PUMPTOOL\RELEASE\VC142.PDB
D:\DEVELOP\ВЖХ\PUMPTOOL\PUMPTOOL\RELEASE\GRADIENTPROGRAMSTAGE.OBJ
D:\DEVELOP\ВЖХ\PUMPTOOL\PUMPTOOL\RELEASE\GRADIENTPROGRAMDIALOG.OBJ
D:\DEVELOP\ВЖХ\PUMPTOOL\PUMPTOOL\RELEASE\GRADIENTPAGE.OBJ
D:\DEVELOP\ВЖХ\PUMPTOOL\PUMPTOOL\RELEASE\ERRORDIALOG.OBJ
D:\DEVELOP\ВЖХ\PUMPTOOL\PUMPTOOL\RELEASE\INSTRUMENTERRORDIALOG.OBJ
D:\DEVELOP\ВЖХ\PUMPTOOL\PUMPTOOL\RELEASE\TRACKINGTOOLTIP.OBJ
D:\DEVELOP\ВЖХ\PUMPTOOL\PUMPTOOL\RELEASE\SMARTCOMBOBOX.OBJ
D:\DEVELOP\ВЖХ\PUMPTOOL\PUMPTOOL\RELEASE\INTEGERVALIDATOR.OBJ
D:\DEVELOP\ВЖХ\PUMPTOOL\PUMPTOOL\RELEASE\IMAGECOMBOBOX.OBJ
D:\DEVELOP\ВЖХ\PUMPTOOL\PUMPTOOL\RELEASE\HEADERCTRLEXT.OBJ
D:\DEVELOP\ВЖХ\PUMPTOOL\PUMPTOOL\RELEASE\GRIDEDIT.OBJ
D:\DEVELOP\ВЖХ\PUMPTOOL\PUMPTOOL\RELEASE\GRIDCTRL.OBJ
D:\DEVELOP\ВЖХ\PUMPTOOL\PUMPTOOL\RELEASE\GRIDCOMBOBOXCHILDEDIT.OBJ
D:\DEVELOP\ВЖХ\PUMPTOOL\PUMPTOOL\RELEASE\GRIDCOMBOBOX.OBJ
D:\DEVELOP\ВЖХ\PUMPTOOL\PUMPTOOL\RELEASE\FLOATVALIDATOR.OBJ
D:\DEVELOP\ВЖХ\PUMPTOOL\PUMPTOOL\RELEASE\FILTEREDIT.OBJ
D:\DEVELOP\ВЖХ\PUMPTOOL\PUMPTOOL\RELEASE\EDITABLEGRIDCTRL.OBJ
D:\DEVELOP\ВЖХ\PUMPTOOL\PUMPTOOL\RELEASE\CONNECTIONPAGE.OBJ
D:\DEVELOP\ВЖХ\PUMPTOOL\PUMPTOOL\RELEASE\COMMONPROGRAMDIALOG.OBJ
D:\DEVELOP\ВЖХ\PUMPTOOL\PUMPTOOL\RELEASE\AUTOSAMPLERPAGE.OBJ
D:\DEVELOP\ВЖХ\PUMPTOOL\PUMPTOOL\RELEASE\TOOLPAGE.OBJ
D:\DEVELOP\ВЖХ\PUMPTOOL\PUMPTOOL\RELEASE\THERMOSTATPAGE.OBJ
D:\DEVELOP\ВЖХ\PUMPTOOL\PUMPTOOL\RELEASE\SETTINGSPAGE.OBJ
D:\DEVELOP\ВЖХ\PUMPTOOL\PUMPTOOL\RELEASE\SERVICE.OBJ
D:\DEVELOP\ВЖХ\PUMPTOOL\PUMPTOOL\RELEASE\SELECTPUMPCONNECTIONDIALOG.OBJ
D:\DEVELOP\ВЖХ\PUMPTOOL\PUMPTOOL\RELEASE\PUMPTOOL.OBJ
D:\DEVELOP\ВЖХ\PUMPTOOL\PUMPTOOL\RELEASE\PROGRAMDATA.OBJ
D:\DEVELOP\ВЖХ\PUMPTOOL\PUMPTOOL\RELEASE\MAINPROPERTYSHEET.OBJ
D:\DEVELOP\ВЖХ\PUMPTOOL\PUMPTOOL\RELEASE\ISOCRATICSETTINGSDIALOG.OBJ
D:\DEVELOP\ВЖХ\PUMPTOOL\PUMPTOOL\RELEASE\ISOCRATICPAGE.OBJ
D:\DEVELOP\ВЖХ\PUMPTOOL\PUMPTOOL\RELEASE\THERMOSTAT.OBJ
D:\DEVELOP\ВЖХ\PUMPTOOL\PUMPTOOL\RELEASE\PITON.OBJ
D:\DEVELOP\ВЖХ\PUMPTOOL\PUMPTOOL\RELEASE\AUTOSAMPLER.OBJ
D:\DEVELOP\ВЖХ\PUMPTOOL\PUMPTOOL\RELEASE\OUTGOINGMESSAGE.OBJ
D:\DEVELOP\ВЖХ\PUMPTOOL\PUMPTOOL\RELEASE\MEASUREMENTPROGRAM.OBJ
D:\DEVELOP\ВЖХ\PUMPTOOL\PUMPTOOL\RELEASE\MEASUREDDATA.OBJ
D:\DEVELOP\ВЖХ\PUMPTOOL\PUMPTOOL\RELEASE\MASTERINSTRUMENT.OBJ
D:\DEVELOP\ВЖХ\PUMPTOOL\PUMPTOOL\RELEASE\INSTRUMENT.OBJ
D:\DEVELOP\ВЖХ\PUMPTOOL\PUMPTOOL\RELEASE\INCOMINGMESSAGE.OBJ
D:\DEVELOP\ВЖХ\PUMPTOOL\PUMPTOOL\RELEASE\GRADIENTWAITDIALOG.OBJ
D:\DEVELOP\ВЖХ\PUMPTOOL\PUMPTOOL\RELEASE\UNIVERSALDATAFILE.OBJ
D:\DEVELOP\ВЖХ\PUMPTOOL\PUMPTOOL\RELEASE\CLIPBOARD.OBJ
^D:\DEVELOP\ВЖХ\PUMPTOOL\PUMPTOOL\CONTROLS\EDITABLEGRIDCTRL.CPP
D:\DEVELOP\ВЖХ\PUMPTOOL\PUMPTOOL\RELEASE\VC142.PDB
^D:\DEVELOP\ВЖХ\PUMPTOOL\PUMPTOOL\CONTROLS\FILTEREDIT.CPP
D:\DEVELOP\ВЖХ\PUMPTOOL\PUMPTOOL\RELEASE\VC142.PDB
^D:\DEVELOP\ВЖХ\PUMPTOOL\PUMPTOOL\CONTROLS\FLOATVALIDATOR.CPP
D:\DEVELOP\ВЖХ\PUMPTOOL\PUMPTOOL\RELEASE\VC142.PDB
^D:\DEVELOP\ВЖХ\PUMPTOOL\PUMPTOOL\CONTROLS\GRIDCOMBOBOX.CPP
D:\DEVELOP\ВЖХ\PUMPTOOL\PUMPTOOL\RELEASE\VC142.PDB
^D:\DEVELOP\ВЖХ\PUMPTOOL\PUMPTOOL\CONTROLS\GRIDCOMBOBOXCHILDEDIT.CPP
D:\DEVELOP\ВЖХ\PUMPTOOL\PUMPTOOL\RELEASE\VC142.PDB
^D:\DEVELOP\ВЖХ\PUMPTOOL\PUMPTOOL\CONTROLS\GRIDCTRL.CPP
D:\DEVELOP\ВЖХ\PUMPTOOL\PUMPTOOL\RELEASE\VC142.PDB
^D:\DEVELOP\ВЖХ\PUMPTOOL\PUMPTOOL\CONTROLS\GRIDEDIT.CPP
D:\DEVELOP\ВЖХ\PUMPTOOL\PUMPTOOL\RELEASE\VC142.PDB
^D:\DEVELOP\ВЖХ\PUMPTOOL\PUMPTOOL\CONTROLS\HEADERCTRLEXT.CPP
D:\DEVELOP\ВЖХ\PUMPTOOL\PUMPTOOL\RELEASE\VC142.PDB
^D:\DEVELOP\ВЖХ\PUMPTOOL\PUMPTOOL\CONTROLS\IMAGECOMBOBOX.CPP
D:\DEVELOP\ВЖХ\PUMPTOOL\PUMPTOOL\RELEASE\VC142.PDB
^D:\DEVELOP\ВЖХ\PUMPTOOL\PUMPTOOL\CONTROLS\INTEGERVALIDATOR.CPP
D:\DEVELOP\ВЖХ\PUMPTOOL\PUMPTOOL\RELEASE\VC142.PDB
^D:\DEVELOP\ВЖХ\PUMPTOOL\PUMPTOOL\CONTROLS\SMARTCOMBOBOX.CPP
D:\DEVELOP\ВЖХ\PUMPTOOL\PUMPTOOL\RELEASE\VC142.PDB
^D:\DEVELOP\ВЖХ\PUMPTOOL\PUMPTOOL\CONTROLS\TRACKINGTOOLTIP.CPP
D:\DEVELOP\ВЖХ\PUMPTOOL\PUMPTOOL\RELEASE\VC142.PDB
^D:\DEVELOP\ВЖХ\PUMPTOOL\PUMPTOOL\GRADIENTPROGRAMSTAGE.CPP
D:\DEVELOP\ВЖХ\PUMPTOOL\PUMPTOOL\RELEASE\VC142.PDB
^D:\DEVELOP\ВЖХ\PUMPTOOL\PUMPTOOL\INSTRUMENTBASE\INCOMINGMESSAGE.CPP
D:\DEVELOP\ВЖХ\PUMPTOOL\PUMPTOOL\RELEASE\VC142.PDB
^D:\DEVELOP\ВЖХ\PUMPTOOL\PUMPTOOL\INSTRUMENTBASE\INSTRUMENT.CPP
D:\DEVELOP\ВЖХ\PUMPTOOL\PUMPTOOL\RELEASE\VC142.PDB
^D:\DEVELOP\ВЖХ\PUMPTOOL\PUMPTOOL\INSTRUMENTBASE\MASTERINSTRUMENT.CPP
D:\DEVELOP\ВЖХ\PUMPTOOL\PUMPTOOL\RELEASE\VC142.PDB
^D:\DEVELOP\ВЖХ\PUMPTOOL\PUMPTOOL\INSTRUMENTBASE\MEASUREDDATA.CPP
D:\DEVELOP\ВЖХ\PUMPTOOL\PUMPTOOL\RELEASE\VC142.PDB
^D:\DEVELOP\ВЖХ\PUMPTOOL\PUMPTOOL\INSTRUMENTBASE\MEASUREMENTPROGRAM.CPP
D:\DEVELOP\ВЖХ\PUMPTOOL\PUMPTOOL\RELEASE\VC142.PDB
^D:\DEVELOP\ВЖХ\PUMPTOOL\PUMPTOOL\INSTRUMENTBASE\OUTGOINGMESSAGE.CPP
D:\DEVELOP\ВЖХ\PUMPTOOL\PUMPTOOL\RELEASE\VC142.PDB
^D:\DEVELOP\ВЖХ\PUMPTOOL\PUMPTOOL\INSTRUMENT\AUTOSAMPLER.CPP
D:\DEVELOP\ВЖХ\PUMPTOOL\PUMPTOOL\RELEASE\VC142.PDB
^D:\DEVELOP\ВЖХ\PUMPTOOL\PUMPTOOL\INSTRUMENT\PITON.CPP
D:\DEVELOP\ВЖХ\PUMPTOOL\PUMPTOOL\RELEASE\VC142.PDB
^D:\DEVELOP\ВЖХ\PUMPTOOL\PUMPTOOL\INSTRUMENT\THERMOSTAT.CPP
D:\DEVELOP\ВЖХ\PUMPTOOL\PUMPTOOL\RELEASE\VC142.PDB
^D:\DEVELOP\ВЖХ\PUMPTOOL\PUMPTOOL\SERVICE.CPP
D:\DEVELOP\ВЖХ\PUMPTOOL\PUMPTOOL\RELEASE\VC142.PDB
^D:\DEVELOP\ВЖХ\PUMPTOOL\PUMPTOOL\USER\CLIPBOARD.CPP
D:\DEVELOP\ВЖХ\PUMPTOOL\PUMPTOOL\RELEASE\VC142.PDB
^D:\DEVELOP\ВЖХ\PUMPTOOL\PUMPTOOL\USER\UNIVERSALDATAFILE.CPP
D:\DEVELOP\ВЖХ\PUMPTOOL\PUMPTOOL\RELEASE\VC142.PDB
^D:\DEVELOP\ВЖХ\PUMPTOOL\PUMPTOOL\AUTOSAMPLERPAGE.CPP|D:\DEVELOP\ВЖХ\PUMPTOOL\PUMPTOOL\COMMONPROGRAMDIALOG.CPP|D:\DEVELOP\ВЖХ\PUMPTOOL\PUMPTOOL\CONNECTIONPAGE.CPP|D:\DEVELOP\ВЖХ\PUMPTOOL\PUMPTOOL\DIALOGS\INSTRUMENTERRORDIALOG.CPP|D:\DEVELOP\ВЖХ\PUMPTOOL\PUMPTOOL\ERRORDIALOG.CPP|D:\DEVELOP\ВЖХ\PUMPTOOL\PUMPTOOL\GRADIENTPAGE.CPP|D:\DEVELOP\ВЖХ\PUMPTOOL\PUMPTOOL\GRADIENTPROGRAMDIALOG.CPP|D:\DEVELOP\ВЖХ\PUMPTOOL\PUMPTOOL\GRADIENTWAITDIALOG.CPP|D:\DEVELOP\ВЖХ\PUMPTOOL\PUMPTOOL\ISOCRATICPAGE.CPP|D:\DEVELOP\ВЖХ\PUMPTOOL\PUMPTOOL\ISOCRATICSETTINGSDIALOG.CPP|D:\DEVELOP\ВЖХ\PUMPTOOL\PUMPTOOL\MAINPROPERTYSHEET.CPP|D:\DEVELOP\ВЖХ\PUMPTOOL\PUMPTOOL\PROGRAMDATA.CPP|D:\DEVELOP\ВЖХ\PUMPTOOL\PUMPTOOL\PUMPTOOL.CPP|D:\DEVELOP\ВЖХ\PUMPTOOL\PUMPTOOL\SELECTPUMPCONNECTIONDIALOG.CPP|D:\DEVELOP\ВЖХ\PUMPTOOL\PUMPTOOL\SETTINGSPAGE.CPP|D:\DEVELOP\ВЖХ\PUMPTOOL\PUMPTOOL\THERMOSTATPAGE.CPP|D:\DEVELOP\ВЖХ\PUMPTOOL\PUMPTOOL\TOOLPAGE.CPP
D:\DEVELOP\ВЖХ\PUMPTOOL\PUMPTOOL\RELEASE\VC142.PDB
D:\DEVELOP\ВЖХ\PUMPTOOL\PUMPTOOL\RELEASE\TOOLPAGE.OBJ
D:\DEVELOP\ВЖХ\PUMPTOOL\PUMPTOOL\RELEASE\THERMOSTATPAGE.OBJ
D:\DEVELOP\ВЖХ\PUMPTOOL\PUMPTOOL\RELEASE\SETTINGSPAGE.OBJ
D:\DEVELOP\ВЖХ\PUMPTOOL\PUMPTOOL\RELEASE\SELECTPUMPCONNECTIONDIALOG.OBJ
D:\DEVELOP\ВЖХ\PUMPTOOL\PUMPTOOL\RELEASE\PUMPTOOL.OBJ
D:\DEVELOP\ВЖХ\PUMPTOOL\PUMPTOOL\RELEASE\PROGRAMDATA.OBJ
D:\DEVELOP\ВЖХ\PUMPTOOL\PUMPTOOL\RELEASE\MAINPROPERTYSHEET.OBJ
D:\DEVELOP\ВЖХ\PUMPTOOL\PUMPTOOL\RELEASE\ISOCRATICSETTINGSDIALOG.OBJ
D:\DEVELOP\ВЖХ\PUMPTOOL\PUMPTOOL\RELEASE\ISOCRATICPAGE.OBJ
D:\DEVELOP\ВЖХ\PUMPTOOL\PUMPTOOL\RELEASE\GRADIENTWAITDIALOG.OBJ
D:\DEVELOP\ВЖХ\PUMPTOOL\PUMPTOOL\RELEASE\GRADIENTPROGRAMDIALOG.OBJ
D:\DEVELOP\ВЖХ\PUMPTOOL\PUMPTOOL\RELEASE\GRADIENTPAGE.OBJ
D:\DEVELOP\ВЖХ\PUMPTOOL\PUMPTOOL\RELEASE\ERRORDIALOG.OBJ
D:\DEVELOP\ВЖХ\PUMPTOOL\PUMPTOOL\RELEASE\INSTRUMENTERRORDIALOG.OBJ
D:\DEVELOP\ВЖХ\PUMPTOOL\PUMPTOOL\RELEASE\CONNECTIONPAGE.OBJ
D:\DEVELOP\ВЖХ\PUMPTOOL\PUMPTOOL\RELEASE\COMMONPROGRAMDIALOG.OBJ
D:\DEVELOP\ВЖХ\PUMPTOOL\PUMPTOOL\RELEASE\AUTOSAMPLERPAGE.OBJ
^D:\DEVELOP\ВЖХ\PUMPTOOL\PUMPTOOL\AUTOSAMPLERPAGE.CPP
D:\DEVELOP\ВЖХ\PUMPTOOL\PUMPTOOL\RELEASE\VC142.PDB
^D:\DEVELOP\ВЖХ\PUMPTOOL\PUMPTOOL\COMMONPROGRAMDIALOG.CPP
D:\DEVELOP\ВЖХ\PUMPTOOL\PUMPTOOL\RELEASE\VC142.PDB
^D:\DEVELOP\ВЖХ\PUMPTOOL\PUMPTOOL\CONNECTIONPAGE.CPP
D:\DEVELOP\ВЖХ\PUMPTOOL\PUMPTOOL\RELEASE\VC142.PDB
^D:\DEVELOP\ВЖХ\PUMPTOOL\PUMPTOOL\DIALOGS\INSTRUMENTERRORDIALOG.CPP
D:\DEVELOP\ВЖХ\PUMPTOOL\PUMPTOOL\RELEASE\VC142.PDB
^D:\DEVELOP\ВЖХ\PUMPTOOL\PUMPTOOL\ERRORDIALOG.CPP
D:\DEVELOP\ВЖХ\PUMPTOOL\PUMPTOOL\RELEASE\VC142.PDB
^D:\DEVELOP\ВЖХ\PUMPTOOL\PUMPTOOL\GRADIENTPAGE.CPP
D:\DEVELOP\ВЖХ\PUMPTOOL\PUMPTOOL\RELEASE\VC142.PDB
^D:\DEVELOP\ВЖХ\PUMPTOOL\PUMPTOOL\GRADIENTPROGRAMDIALOG.CPP
D:\DEVELOP\ВЖХ\PUMPTOOL\PUMPTOOL\RELEASE\VC142.PDB
^D:\DEVELOP\ВЖХ\PUMPTOOL\PUMPTOOL\GRADIENTWAITDIALOG.CPP
D:\DEVELOP\ВЖХ\PUMPTOOL\PUMPTOOL\RELEASE\VC142.PDB
^D:\DEVELOP\ВЖХ\PUMPTOOL\PUMPTOOL\ISOCRATICPAGE.CPP
D:\DEVELOP\ВЖХ\PUMPTOOL\PUMPTOOL\RELEASE\VC142.PDB
^D:\DEVELOP\ВЖХ\PUMPTOOL\PUMPTOOL\ISOCRATICSETTINGSDIALOG.CPP
D:\DEVELOP\ВЖХ\PUMPTOOL\PUMPTOOL\RELEASE\VC142.PDB
^D:\DEVELOP\ВЖХ\PUMPTOOL\PUMPTOOL\MAINPROPERTYSHEET.CPP
D:\DEVELOP\ВЖХ\PUMPTOOL\PUMPTOOL\RELEASE\VC142.PDB
^D:\DEVELOP\ВЖХ\PUMPTOOL\PUMPTOOL\PROGRAMDATA.CPP
D:\DEVELOP\ВЖХ\PUMPTOOL\PUMPTOOL\RELEASE\VC142.PDB
^D:\DEVELOP\ВЖХ\PUMPTOOL\PUMPTOOL\PUMPTOOL.CPP
D:\DEVELOP\ВЖХ\PUMPTOOL\PUMPTOOL\RELEASE\VC142.PDB
^D:\DEVELOP\ВЖХ\PUMPTOOL\PUMPTOOL\SELECTPUMPCONNECTIONDIALOG.CPP
D:\DEVELOP\ВЖХ\PUMPTOOL\PUMPTOOL\RELEASE\VC142.PDB
^D:\DEVELOP\ВЖХ\PUMPTOOL\PUMPTOOL\SETTINGSPAGE.CPP
D:\DEVELOP\ВЖХ\PUMPTOOL\PUMPTOOL\RELEASE\VC142.PDB
^D:\DEVELOP\ВЖХ\PUMPTOOL\PUMPTOOL\THERMOSTATPAGE.CPP
D:\DEVELOP\ВЖХ\PUMPTOOL\PUMPTOOL\RELEASE\VC142.PDB
^D:\DEVELOP\ВЖХ\PUMPTOOL\PUMPTOOL\TOOLPAGE.CPP
D:\DEVELOP\ВЖХ\PUMPTOOL\PUMPTOOL\RELEASE\VC142.PDB
